ISSS624 - Take-Home Exercise 2: Applied Spatial Interaction Models
…
From the above output, we know that there is no duplicate rows in the hdb_res dataframe.

Let us check further to see if there are any buildings with same postal code but occupy 2 different longitude and latitude.

Show the code

same_postal <- hdb_res %>%
  group_by(postal) %>% 
  filter(n()>1) %>%
  ungroup()

same_postal

# A tibble: 73 × 6
   postal   lat   lng SUBZONE_N      residential total_dwelling_units
   <chr>  <dbl> <dbl> <chr>          <chr>                      <dbl>
 1 NIL     1.35  104. BISHAN EAST    Y                            115
 2 NIL     1.30  104. TANJONG RHU    Y                            132
 3 NIL     1.34  104. SIMEI          Y                            110
 4 NIL     1.37  104. KEBUN BAHRU    Y                            153
 5 NIL     1.39  104. RIVERVALE      Y                             80
 6 NIL     1.34  104. TOA PAYOH WEST Y                            200
 7 NIL     1.28  104. TIONG BAHRU    Y                            113
 8 NIL     1.34  104. ANAK BUKIT     Y                            138
 9 NIL     1.34  104. SIMEI          Y                            120
10 NIL     1.30  104. BUGIS          Y                             76
# ℹ 63 more rows
…
