ISSS624 - In-class Exercise 3: Calibrating Spatial Interaction Models
…
flow_data1 <- flow_data %>%
  left_join (distPair,
             by = c("ORIGIN_SZ" = "orig",
                    "DESTIN_SZ" = "dest"))

5 Preparing Origin and Destination Attributes

5.1 Importing population data

Show the code

pop <- read_csv("data/aspatial/pop.csv")
pop

# A tibble: 332 × 5
   PA         SZ                     AGE7_12 AGE13_24 AGE25_64
   <chr>      <chr>                    <dbl>    <dbl>    <dbl>
 1 ANG MO KIO ANG MO KIO TOWN CENTRE     310      710     2780
 2 ANG MO KIO CHENG SAN                 1140     2770    15700
 3 ANG MO KIO CHONG BOON                1010     2650    14240
 4 ANG MO KIO KEBUN BAHRU               1050     2390    12460
 5 ANG MO KIO SEMBAWANG HILLS            420     1120     3620
 6 ANG MO KIO SHANGRI-LA                 810     1920     9650
 7 ANG MO KIO TAGORE                     390     1150     4350
 8 ANG MO KIO TOWNSVILLE                 980     2000    11320
 9 ANG MO KIO YIO CHU KANG                 0        0        0
10 ANG MO KIO YIO CHU KANG EAST          260      650     2500
# ℹ 322 more rows
…
