ISSS624 - Hands-on Exercise 1B: Choropleth Mapping with R
…
Rows: 738492 Columns: 7
── Column specification ────────────────────────────────────────────────────────
Delimiter: ","
chr (5): PA, SZ, AG, Sex, FA
dbl (2): Pop, Time

ℹ Use `spec()` to retrieve the full column specification for this data.
ℹ Specify the column types or set `show_col_types = FALSE` to quiet this message.

Let’s take a look at the data imported in:

list(popdata)

[[1]]
# A tibble: 738,492 × 7
   PA         SZ                     AG     Sex     FA              Pop  Time
   <chr>      <chr>                  <chr>  <chr>   <chr>         <dbl> <dbl>
 1 Ang Mo Kio Ang Mo Kio Town Centre 0_to_4 Males   <= 60             0  2011
 2 Ang Mo Kio Ang Mo Kio Town Centre 0_to_4 Males   >60 to 80        10  2011
 3 Ang Mo Kio Ang Mo Kio Town Centre 0_to_4 Males   >80 to 100       30  2011
 4 Ang Mo Kio Ang Mo Kio Town Centre 0_to_4 Males   >100 to 120      80  2011
 5 Ang Mo Kio Ang Mo Kio Town Centre 0_to_4 Males   >120             20  2011
 6 Ang Mo Kio Ang Mo Kio Town Centre 0_to_4 Males   Not Available     0  2011
 7 Ang Mo Kio Ang Mo Kio Town Centre 0_to_4 Females <= 60             0  2011
 8 Ang Mo Kio Ang Mo Kio Town Centre 0_to_4 Females >60 to 80        10  2011
 9 Ang Mo Kio Ang Mo Kio Town Centre 0_to_4 Females >80 to 100       40  2011
10 Ang Mo Kio Ang Mo Kio Town Centre 0_to_4 Females >100 to 120      90  2011
# ℹ 738,482 more rows
…
