ISSS624 - Take-Home Exercise 1: Geospatial Analytics for Public Good
…
$ORIGIN_PT_CODE
[1] 0

$TOTAL
[1] 0

$WDMP
[1] 44

origin_TRIPS %>% 
  filter(is.na(origin_TRIPS$WDMP)) 

# A tibble: 44 × 3
   ORIGIN_PT_CODE TOTAL  WDMP
   <fct>          <dbl> <dbl>
 1 02099             68    NA
 2 02141           2536    NA
 3 03339             18    NA
 4 03349            210    NA
 5 14521             83    NA
 6 18251             42    NA
 7 25381            100    NA
 8 31081             34    NA
 9 32049             19    NA
10 32061              2    NA
# ℹ 34 more rows
…
origin_TRIPS <- left_join(origin_TRIPS, origin_WDAP)

glimpse(origin_TRIPS)

Rows: 5,073
Columns: 4
$ ORIGIN_PT_CODE <fct> 01012, 01013, 01019, 01029, 01039, 01059, 01109, 01112,…
$ TOTAL          <dbl> 30897, 24191, 15980, 36977, 56774, 12128, 1998, 183741,…
$ WDMP           <dbl> 1770, 841, 1530, 2483, 2919, 1734, 200, 8593, 7749, 368…
$ WDAP           <dbl> 8000, 7038, 3398, 9089, 12095, 2212, 276, 43513, 25769,…

origin_TRIPS %>% 
  filter(is.na(origin_TRIPS$WDAP)) 

# A tibble: 34 × 4
   ORIGIN_PT_CODE TOTAL  WDMP  WDAP
   <fct>          <dbl> <dbl> <dbl>
 1 03339             18    NA    NA
 2 11389              3     3    NA
 3 23191              3     3    NA
 4 32041              2     1    NA
 5 32059             13     3    NA
 6 32061              2    NA    NA
 7 33031              1    NA    NA
 8 34011             26     1    NA
 9 34041              2    NA    NA
10 44711            980    NA    NA
# ℹ 24 more rows
…
glimpse(origin_TRIPS)

Rows: 5,073
Columns: 5
$ ORIGIN_PT_CODE <fct> 01012, 01013, 01019, 01029, 01039, 01059, 01109, 01112,…
$ TOTAL          <dbl> 30897, 24191, 15980, 36977, 56774, 12128, 1998, 183741,…
$ WDMP           <dbl> 1770, 841, 1530, 2483, 2919, 1734, 200, 8593, 7749, 368…
$ WDAP           <dbl> 8000, 7038, 3398, 9089, 12095, 2212, 276, 43513, 25769,…
$ WEMP           <dbl> 2177, 1818, 1536, 3217, 5408, 1159, 116, 15354, 8805, 6…

origin_TRIPS %>% 
  filter(is.na(origin_TRIPS$WEMP)) 

# A tibble: 61 × 5
   ORIGIN_PT_CODE TOTAL  WDMP  WDAP  WEMP
   <fct>          <dbl> <dbl> <dbl> <dbl>
 1 03241           1545    56  1489    NA
 2 11389              3     3    NA    NA
 3 15109             13     1     6    NA
 4 15119            192     7   115    NA
 5 15181            145    27    24    NA
 6 16191             17     2     2    NA
 7 16219             17     3     4    NA
 8 18251             42    NA     7    NA
 9 22049             15     2     2    NA
10 22159             56    14     9    NA
# ℹ 51 more rows
…
Rows: 5,073
Columns: 6
$ ORIGIN_PT_CODE <fct> 01012, 01013, 01019, 01029, 01039, 01059, 01109, 01112,…
$ TOTAL          <dbl> 30897, 24191, 15980, 36977, 56774, 12128, 1998, 183741,…
$ WDMP           <dbl> 1770, 841, 1530, 2483, 2919, 1734, 200, 8593, 7749, 368…
$ WDAP           <dbl> 8000, 7038, 3398, 9089, 12095, 2212, 276, 43513, 25769,…
$ WEMP           <dbl> 2177, 1818, 1536, 3217, 5408, 1159, 116, 15354, 8805, 6…
$ WEEP           <dbl> 3061, 2770, 1685, 4063, 7263, 1118, 101, 21405, 11556, …

origin_TRIPS %>% 
  filter(is.na(origin_TRIPS$WEEP)) 

# A tibble: 81 × 6
   ORIGIN_PT_CODE TOTAL  WDMP  WDAP  WEMP  WEEP
   <fct>          <dbl> <dbl> <dbl> <dbl> <dbl>
 1 03241           1545    56  1489    NA    NA
 2 03549             14     2     6     1    NA
 3 11389              3     3    NA    NA    NA
 4 15101             66     4    24     4    NA
 5 15109             13     1     6    NA    NA
 6 16219             17     3     4    NA    NA
 7 18099            345    16   236     2    NA
 8 21119             43     6     2     2    NA
 9 21339             47    21    11     1    NA
10 22049             15     2     2    NA    NA
# ℹ 71 more rows
…
$WDAP
[1] 34

$WEMP
[1] 61

$WEEP
[1] 81

Filter out rows with NA

origin_TRIPS[rowSums(is.na(origin_TRIPS)) > 0, ] 

# A tibble: 144 × 6
   ORIGIN_PT_CODE TOTAL  WDMP  WDAP  WEMP  WEEP
   <fct>          <dbl> <dbl> <dbl> <dbl> <dbl>
 1 02099             68    NA     6     1    20
 2 02141           2536    NA   235   254   557
 3 03241           1545    56  1489    NA    NA
 4 03339             18    NA    NA     1     5
 5 03349            210    NA    75    18    20
 6 03549             14     2     6     1    NA
 7 11389              3     3    NA    NA    NA
 8 14521             83    NA    34    16    16
 9 15101             66     4    24     4    NA
10 15109             13     1     6    NA    NA
# ℹ 134 more rows
…
